{"_embedded":{"honors":[{"id":145,"title":"107年全國客語能力初級認證合格","beg_date":"2018-11-14","end_date":"2018-11-14","level":"全國社團"},{"id":144,"title":"107年全國客家藝文競賽全國總決賽口說藝術高年級組第五名","beg_date":"2018-11-13","end_date":"2018-11-13","level":"全國錦標"},{"id":143,"title":"107年全國客家藝文競賽全國總決賽歌唱表演高年級組第四名","beg_date":"2018-11-13","end_date":"2018-11-13","level":"全國錦標"},{"id":141,"title":"107年全國客家藝文競賽中區初賽歌唱表演組特優","beg_date":"2018-10-14","end_date":"2018-10-14","level":"全區錦標"},{"id":142,"title":"107年全國客家藝文競賽中區初賽口說藝術組特優","beg_date":"2018-10-14","end_date":"2018-10-14","level":"全區錦標"},{"id":139,"title":"107年臺中市語文競賽第二區初賽成績優異","beg_date":"2018-09-16","end_date":"2018-09-16","level":"全區錦標"},{"id":140,"title":"107年臺中市語文競賽第四區國小團體組第三名","beg_date":"2018-09-16","end_date":"2018-09-16","level":"全區錦標"},{"id":138,"title":"107年度語文競賽第四區區賽成績優異","beg_date":"2018-09-03","end_date":"2018-09-03","level":"全區錦標"},{"id":136,"title":"2018世界機關王競賽成績優異","beg_date":"2018-08-07","end_date":"2018-08-07","level":"全國錦標"},{"id":135,"title":"2018年第20屆全球中華經典會考活動成績優異","beg_date":"2018-06-12","end_date":"2018-06-12","level":"校內活動"},{"id":134,"title":"人間福報文藝作品表現優異","beg_date":"2018-06-05","end_date":"2018-06-05","level":"全國社團"},{"id":133,"title":"中華幼童圍棋教育發展協會舉辦 智積盃第一屆校際圍棋賽獲獎","beg_date":"2018-05-30","end_date":"2018-05-30","level":"市級社團"},{"id":132,"title":"107年度教育部國民及學前教育署 Cool English閱讀王比賽獲獎","beg_date":"2018-05-23","end_date":"2018-05-23","level":"全國社團"},{"id":131,"title":"孝親月活動「媽媽的畫像」優選得獎","beg_date":"2018-05-21","end_date":"2018-05-26","level":"校內活動"},{"id":130,"title":"107年臺中市風力能創意玩具競賽佳作","beg_date":"2018-05-21","end_date":"2018-05-21","level":"全市錦標"},{"id":129,"title":"107年度客家講古比賽(重點發展區場次)成績優異","beg_date":"2018-05-17","end_date":"2018-05-17","level":"全市錦標"},{"id":128,"title":"陳澄波仿畫得獎學生","beg_date":"2018-05-04","end_date":"2018-05-04","level":"校內活動"},{"id":127,"title":"臺中市第八屆兒童文學創作徵文比賽","beg_date":"2018-04-25","end_date":"2018-04-25","level":"全市錦標"},{"id":126,"title":"林心正教育基金會第六屆『永傳心正盃』硬筆書法比賽決賽","beg_date":"2018-04-20","end_date":"2018-06-13","level":"市級社團"},{"id":125,"title":"臺中市107年度國小學生籃球聯賽男童乙組冠軍","beg_date":"2018-03-19","end_date":"2018-03-19","level":"全市錦標"},{"id":124,"title":"臺中市106學年度國小運動聯盟班際跳繩比賽石岡新社區複賽 高年級組第一名","beg_date":"2018-03-05","end_date":"2018-03-05","level":"全市錦標"},{"id":123,"title":"臺中市106學年度國小運動聯盟班際跳繩比賽石岡新社區複賽 中年級組第一名","beg_date":"2018-03-05","end_date":"2018-03-05","level":"全市錦標"},{"id":122,"title":"106年度客語能力中高級認證合格","beg_date":"2018-01-24","end_date":"2018-01-24","level":"全國社團"},{"id":121,"title":"106年校內語文競賽各類優勝","beg_date":"2017-12-22","end_date":"2017-12-22","level":"全校競賽"},{"id":120,"title":"臺中市106學年度國民小學英語說故事比賽丙組第四名","beg_date":"2017-12-11","end_date":"2017-12-11","level":"全市錦標"}],"honor_kind":[{"level":"全區錦標"},{"level":"全國社團"},{"level":"全國錦標"},{"level":"全市錦標"},{"level":"全校競賽"},{"level":"市級社團"},{"level":"校內活動"}]},"_links":{"self":{"href":"&page=1"},"first":{"href":""},"last":{"href":"&page=6"},"next":{"href":"&page=2"}},"page_size":25,"total_items":137,"page_count":6}